MRF PROJEKT
…
df <- returns_5min_spolkaJ %>% mutate(date = as.Date(datetime))

daily_returns <- df %>%
  group_by(date) %>%
  summarise(
    P_open  = first(price),
    P_close = last(price),
    r_daily = log(P_close) - log(P_open),
    .groups = "drop"
  )

daily_returns

## # A tibble: 124 × 4
##    date       P_open P_close   r_daily
##    <date>      <dbl>   <dbl>     <dbl>
##  1 2018-01-03   46.4    45.5 -0.0178  
##  2 2018-01-04   46.0    46.2  0.00643 
##  3 2018-01-05   46.2    46.5  0.00475 
##  4 2018-01-08   46.7    47.3  0.0134  
##  5 2018-01-09   47.3    47.2 -0.000130
##  6 2018-01-10   47.0    47.0 -0.00192 
##  7 2018-01-11   46.9    47.7  0.0166  
##  8 2018-01-12   47.7    47.7 -0.000419
##  9 2018-01-15   47.8    47.7 -0.00189 
## 10 2018-01-16   47.7    48.7  0.0203  
## # ℹ 114 more rows
…
Nie sprawdzamy dodatkowo wszystkich kombinacji (np wyrzucajac
wtorek ,srode etc) poniewaz zmienne binarne tylko lekko podwyzsza nam
dopasowanie funkcji FFF,zatem nie maja drastycznego wplywu na
dopasowanie modelu.

nie mozemy wszystkich naraz poniewaz wtedy bedziemy miec perfect
multicollinearity, podobnie jak z danymi ekonomicznymi jesli sa
kwartaly.

df$wday <- factor(df$wday, ordered = FALSE)

df

## # A tibble: 11,595 × 9
## # Groups:   date [124]
##    datetime            price return_log date       wday        d      y     d1
##    <dttm>              <dbl>      <dbl> <date>     <fct>   <int>  <dbl>  <dbl>
##  1 2018-01-03 09:05:00  46.4 -0.000431  2018-01-03 "śr\\."     1 -2.61  0.0208
##  2 2018-01-03 09:10:00  46.0 -0.00671   2018-01-03 "śr\\."     2  2.97  0.0417
##  3 2018-01-03 09:15:00  45.9 -0.00370   2018-01-03 "śr\\."     3  1.77  0.0625
##  4 2018-01-03 09:20:00  46.0  0.00196   2018-01-03 "śr\\."     4  0.532 0.0833
##  5 2018-01-03 09:25:00  46.0  0.000218  2018-01-03 "śr\\."     5 -3.71  0.104 
##  6 2018-01-03 09:30:00  46.0 -0.000653  2018-01-03 "śr\\."     6 -1.75  0.125 
##  7 2018-01-03 09:35:00  46.0  0.00196   2018-01-03 "śr\\."     7  0.529 0.146 
##  8 2018-01-03 09:45:00  46   -0.000869  2018-01-03 "śr\\."     8 -1.16  0.167 
##  9 2018-01-03 09:50:00  45.9 -0.00131   2018-01-03 "śr\\."     9 -0.330 0.188 
## 10 2018-01-03 09:55:00  45.9  0.0000461 2018-01-03 "śr\\."    10 -6.29  0.208 
## # ℹ 11,585 more rows
## # ℹ 1 more variable: d2 <dbl>
…
fit@fit$matcoef

##             Estimate   Std. Error       t value  Pr(>|t|)
## mu     -2.239230e-03 1.366352e-04 -1.638838e+01 0.0000000
## ar1     8.862573e-01 3.681909e-02  2.407059e+01 0.0000000
## ma1    -1.000000e+00 3.433729e-03 -2.912286e+02 0.0000000
## omega   1.805744e-07 1.775390e-06  1.017097e-01 0.9189871
## alpha1  8.790301e-10 2.875589e-03  3.056870e-07 0.9999998
## beta1   9.989999e-01 2.428150e-03  4.114242e+02 0.0000000

daily

## # A tibble: 124 × 5
##    date       p_open p_close     r_day sigma2_hat
##    <date>      <dbl>   <dbl>     <dbl>      <dbl>
##  1 2018-01-03   46.4    45.5 -0.0178     0.000205
##  2 2018-01-04   46.0    46.2  0.00643    0.000205
##  3 2018-01-05   46.2    46.5  0.00475    0.000205
##  4 2018-01-08   46.7    47.3  0.0134     0.000205
##  5 2018-01-09   47.3    47.2 -0.000130   0.000204
##  6 2018-01-10   47.0    47.0 -0.00192    0.000204
##  7 2018-01-11   46.9    47.7  0.0166     0.000204
##  8 2018-01-12   47.7    47.7 -0.000419   0.000204
##  9 2018-01-15   47.8    47.7 -0.00189    0.000204
## 10 2018-01-16   47.7    48.7  0.0203     0.000204
## # ℹ 114 more rows

df <- df %>%
  left_join(daily %>% select(date, sigma2_hat), by = "date") %>%
  filter(!is.na(return_log), !is.na(sigma2_hat), sigma2_hat > 0)

str(daily$sigma2_hat)

##  num [1:124] 0.000205 0.000205 0.000205 0.000205 0.000204 ...

df

## # A tibble: 11,595 × 15
## # Groups:   date [124]
##    datetime            price return_log date       wday        d      y     d1
##    <dttm>              <dbl>      <dbl> <date>     <fct>   <int>  <dbl>  <dbl>
##  1 2018-01-03 09:05:00  46.4 -0.000431  2018-01-03 "śr\\."     1 -2.61  0.0208
##  2 2018-01-03 09:10:00  46.0 -0.00671   2018-01-03 "śr\\."     2  2.97  0.0417
##  3 2018-01-03 09:15:00  45.9 -0.00370   2018-01-03 "śr\\."     3  1.77  0.0625
##  4 2018-01-03 09:20:00  46.0  0.00196   2018-01-03 "śr\\."     4  0.532 0.0833
##  5 2018-01-03 09:25:00  46.0  0.000218  2018-01-03 "śr\\."     5 -3.71  0.104 
##  6 2018-01-03 09:30:00  46.0 -0.000653  2018-01-03 "śr\\."     6 -1.75  0.125 
##  7 2018-01-03 09:35:00  46.0  0.00196   2018-01-03 "śr\\."     7  0.529 0.146 
##  8 2018-01-03 09:45:00  46   -0.000869  2018-01-03 "śr\\."     8 -1.16  0.167 
##  9 2018-01-03 09:50:00  45.9 -0.00131   2018-01-03 "śr\\."     9 -0.330 0.188 
## 10 2018-01-03 09:55:00  45.9  0.0000461 2018-01-03 "śr\\."    10 -6.29  0.208 
## # ℹ 11,585 more rows
## # ℹ 7 more variables: d2 <dbl>, f_hat <dbl>, s_hat <dbl>, return_deseas <dbl>,
## #   abs_before <dbl>, abs_after <dbl>, sigma2_hat <dbl>
…
aby opisywała wyłącznie względne różnice zmienności w ciągu dnia,
a nie jej poziom.

To tez daje nam interpretacja jak w FFF czyli powyzej 1 bedzie ze
zmiennosc jest powyzej sredniej a ponizej 1 to bedzie ponizej
sredniej.

s2_hat_d <- s2_hat_d %>% mutate( s_hat_raw = sqrt(s2_hat), s_hat = s_hat_raw / mean(s_hat_raw)) %>% select(d, s_hat)

wykresy

df

## # A tibble: 11,595 × 15
## # Groups:   date [124]
##    datetime            price return_log date       wday        d      y     d1
##    <dttm>              <dbl>      <dbl> <date>     <fct>   <int>  <dbl>  <dbl>
##  1 2018-01-03 09:05:00  46.4 -0.000431  2018-01-03 "śr\\."     1 -2.61  0.0208
##  2 2018-01-03 09:10:00  46.0 -0.00671   2018-01-03 "śr\\."     2  2.97  0.0417
##  3 2018-01-03 09:15:00  45.9 -0.00370   2018-01-03 "śr\\."     3  1.77  0.0625
##  4 2018-01-03 09:20:00  46.0  0.00196   2018-01-03 "śr\\."     4  0.532 0.0833
##  5 2018-01-03 09:25:00  46.0  0.000218  2018-01-03 "śr\\."     5 -3.71  0.104 
##  6 2018-01-03 09:30:00  46.0 -0.000653  2018-01-03 "śr\\."     6 -1.75  0.125 
##  7 2018-01-03 09:35:00  46.0  0.00196   2018-01-03 "śr\\."     7  0.529 0.146 
##  8 2018-01-03 09:45:00  46   -0.000869  2018-01-03 "śr\\."     8 -1.16  0.167 
##  9 2018-01-03 09:50:00  45.9 -0.00131   2018-01-03 "śr\\."     9 -0.330 0.188 
## 10 2018-01-03 09:55:00  45.9  0.0000461 2018-01-03 "śr\\."    10 -6.29  0.208 
## # ℹ 11,585 more rows
## # ℹ 7 more variables: d2 <dbl>, f_hat <dbl>, s_hat <dbl>, return_deseas <dbl>,
## #   abs_before <dbl>, abs_after <dbl>, sigma2_hat <dbl>
…
